<?xml version="1.0" encoding="utf-8"?>
<!-- Generator: Adobe Illustrator 19.2.0, SVG Export Plug-In . SVG Version: 6.00 Build 0)  -->
<svg version="1.1" id="Icon" xmlns="http://www.w3.org/2000/svg" xmlns:xlink="http://www.w3.org/1999/xlink" x="0px" y="0px"
	 viewBox="0 0 336 235.2" style="enable-background:new 0 0 336 235.2;" xml:space="preserve">
<style type="text/css">
	.st0{fill:#FFD55C;}
	.st1{opacity:0.2;fill:#3D454A;}
	.st2{fill:#FFFFFF;}
	.st3{fill:#F69777;}
	.st4{fill:#D2CFD6;}
	.st5{fill:#586773;}
	.st6{fill:#CFDBE5;}
	.st7{fill:#FAB952;}
	.st8{fill:#FBFBFB;}
	.st9{opacity:0.2;}
	.st10{fill:#3D454A;}
	.st11{fill:#F2DABB;}
</style>
<rect id="background" class="st0" width="336" height="235.2"/>
<path id="shadow_6_" class="st1" d="M39.9,187.4L39.9,187.4l0-10.3c0-1.4-1.1-2.5-2.5-2.5l-15,0c-1.4,0-2.5,1.1-2.5,2.5l0,10.3h0
	l0,25.4c0,1.4,1.1,2.5,2.5,2.5l15,0c1.4,0,2.5-1.1,2.5-2.5L39.9,187.4z"/>
<polygon id="shadow_5_" class="st1" points="287.8,19.7 246.8,19.7 246.8,94.6 314.5,94.6 314.5,47.4 "/>
<g id="rubber">
	<g>
		<path class="st2" d="M15.6,177.1c0-1.4,1.1-2.5,2.5-2.5l15,0c1.4,0,2.5,1.1,2.5,2.5l0.1,35.8c0,1.4-1.1,2.5-2.5,2.5l-15,0
			c-1.4,0-2.5-1.1-2.5-2.5L15.6,177.1z"/>
		<g>
			<path class="st3" d="M35.6,177c0-1.4-1.1-2.5-2.5-2.5l-15,0c-1.4,0-2.5,1.1-2.5,2.5l0,10.3l20,0L35.6,177z"/>
		</g>
	</g>
</g>
<g id="postit">
	<g>
		<g>
			<polygon class="st2" points="283.8,19.5 242.8,19.5 242.8,94.5 310.8,94.5 310.8,47.5 283.8,47.5 			"/>
			<polygon class="st4" points="283.8,47.5 310.4,47.5 283.8,19.7 			"/>
		</g>
	</g>
	<g>
		<rect x="250.5" y="81.6" class="st5" width="51.4" height="1.1"/>
		<rect x="250.5" y="76.3" class="st5" width="37.8" height="1.1"/>
		<rect x="250.5" y="55" class="st5" width="51.4" height="1.1"/>
		<rect x="250.5" y="60.4" class="st5" width="44.4" height="1.1"/>
		<rect x="250.5" y="65.7" class="st5" width="51.4" height="1.1"/>
		<rect x="250.5" y="71" class="st5" width="51.4" height="1.1"/>
	</g>
</g>
<path id="shadow_4_" class="st1" d="M310.8,98.8l-15.2,0v0h-4.8v7c-7.8,1.9-31.8,6.9-33.9,6.9c-1.1,0-1.9-1-2.7-2
	c-0.8-1.1-1.7-2.2-2.9-2.2c-2.3,0-4.5,2.8-4.5,8.2v0.7c0,5.4,2.3,8.2,4.5,8.2c1.3,0,2.1-1.1,2.9-2.2c0.8-1,1.6-2,2.7-2
	c1.9,0,30.2,6.3,33.9,7.1v3.1v3.3h4.8v0l15.5,0c1.9,0,3.1-1.5,3.1-3.4v-29.6C314.2,100,312.7,98.8,310.8,98.8z M257,119.2
	c-1.8,0-2.9,1.5-3.8,2.6c-0.7,0.8-1.2,1.6-1.8,1.6c-1.5,0-2.9-2.1-2.9-6.1v-0.7c0-4,1.5-6.1,2.9-6.1c0.6,0,1.2,0.7,1.8,1.6
	c0.9,1.2,2,2.6,3.8,2.6c2.4,0,28.8-5.8,33.7-7c0.1,0,0.1,0,0.2-0.1v5.5v7.8v4.8v0.5C284.3,124.8,259.4,119.2,257,119.2z"/>
<path id="shadow_3_" class="st1" d="M322.9,173c-2.4-20.2-19.6-35.9-40.5-35.9c-22.5,0-40.7,18.2-40.7,40.7
	c0,22.5,18.2,40.7,40.7,40.7c21.2,0,38.7-16.2,40.6-37c1.3-0.6,2.1-1.9,2.1-3.4v-0.9v-0.9C325.2,175,324.2,173.7,322.9,173z"/>
<g id="paper">
	<g>
		<polygon class="st2" points="119.9,167.5 14.4,167.5 14.4,38.5 33.2,19.8 119.9,19.8 		"/>
		<polygon class="st4" points="33.2,38.5 14.4,38.5 33.2,19.8 		"/>
	</g>
	<g>
		<g>
			<rect x="29.1" y="55.9" class="st6" width="62.5" height="2.5"/>
		</g>
		<g>
			<polygon class="st6" points="56.6,127.1 52.7,127.1 25.6,127.1 25.6,129.3 52.7,129.3 56.6,129.3 95.4,129.3 95.4,127.1 			"/>
			<polygon class="st6" points="61.2,74.4 59.1,74.4 44.8,74.4 44.8,76.6 59.1,76.6 61.2,76.6 81.7,76.6 81.7,74.4 			"/>
			<polygon class="st6" points="61.2,79.3 59.1,79.3 44.8,79.3 44.8,81.5 59.1,81.5 61.2,81.5 81.7,81.5 81.7,79.3 			"/>
			<polygon class="st6" points="61.2,91 59.1,91 44.8,91 44.8,93.2 59.1,93.2 61.2,93.2 81.7,93.2 81.7,91 			"/>
			<polygon class="st6" points="61.2,95.9 59.1,95.9 44.8,95.9 44.8,98.1 59.1,98.1 61.2,98.1 81.7,98.1 81.7,95.9 			"/>
			<polygon class="st6" points="61.2,107.6 59.1,107.6 44.8,107.6 44.8,109.8 59.1,109.8 61.2,109.8 81.7,109.8 81.7,107.6 			"/>
			<polygon class="st6" points="61.2,112.5 59.1,112.5 44.8,112.5 44.8,114.8 59.1,114.8 61.2,114.8 81.7,114.8 81.7,112.5 			"/>
			<polygon class="st6" points="52.7,132.6 25.6,132.6 25.6,134.9 52.7,134.9 56.6,134.9 95.4,134.9 95.4,132.6 56.6,132.6 			"/>
			<polygon class="st6" points="52.7,138.2 25.6,138.2 25.6,140.4 52.7,140.4 56.6,140.4 95.4,140.4 95.4,138.2 56.6,138.2 			"/>
			<polygon class="st6" points="52.7,143.7 25.6,143.7 25.6,146 52.7,146 56.6,146 95.4,146 95.4,143.7 56.6,143.7 			"/>
			<polygon class="st6" points="52.7,149.3 25.6,149.3 25.6,151.5 52.7,151.5 56.6,151.5 95.4,151.5 95.4,149.3 56.6,149.3 			"/>
		</g>
		<g>
			<g>
				<circle class="st7" cx="32.2" cy="78" r="6.4"/>
				<path class="st2" d="M35.7,76.3L35,75.6c-0.1-0.1-0.3-0.1-0.4,0l-3.1,3.3L30,77.5c-0.1-0.1-0.3-0.1-0.4,0l-0.7,0.8
					c-0.1,0.1-0.1,0.3,0,0.4l2.4,2.2c0,0,0.1,0.1,0.2,0.1c0.1,0,0.2,0,0.2-0.1l4-4.2C35.8,76.6,35.8,76.4,35.7,76.3z"/>
			</g>
		</g>
		<g>
			<g>
				<circle class="st7" cx="32.2" cy="94.6" r="6.4"/>
				<path class="st2" d="M35.7,92.8L35,92.1c-0.1-0.1-0.3-0.1-0.4,0l-3.1,3.3L30,94.1c-0.1-0.1-0.3-0.1-0.4,0l-0.7,0.8
					c-0.1,0.1-0.1,0.3,0,0.4l2.4,2.2c0,0,0.1,0.1,0.2,0.1c0.1,0,0.2,0,0.2-0.1l4-4.2C35.8,93.1,35.8,92.9,35.7,92.8z"/>
			</g>
		</g>
		<g>
			<g>
				<circle class="st7" cx="32.2" cy="111.1" r="6.4"/>
				<path class="st2" d="M35.7,109.4l-0.7-0.7c-0.1-0.1-0.3-0.1-0.4,0l-3.1,3.3l-1.5-1.4c-0.1-0.1-0.3-0.1-0.4,0l-0.7,0.8
					c-0.1,0.1-0.1,0.3,0,0.4l2.4,2.2c0,0,0.1,0.1,0.2,0.1c0.1,0,0.2,0,0.2-0.1l4-4.2C35.8,109.6,35.8,109.5,35.7,109.4z"/>
			</g>
		</g>
	</g>
</g>
<path id="shadow_2_" class="st1" d="M236.2,204.1l0-184.1l-15.9,0v-2.3h-5.4V20l-111.7,0l0,5.4l-5.6,0c-0.5,0-1.2,0.7-1.2,1.5
	c0,0.8,0.7,1.5,1.2,1.5l5.6,0l0,10.1l-5.6,0c-0.5,0-1.2,0.7-1.2,1.5c0,0.8,0.7,1.5,1.2,1.5l5.6,0l0,10.1l-5.6,0
	c-0.5,0-1.2,0.7-1.2,1.5c0,0.8,0.7,1.5,1.2,1.5l5.6,0l0,10.1l-5.6,0c-0.5,0-1.2,0.7-1.2,1.5c0,0.8,0.7,1.5,1.2,1.5l5.6,0l0,9.8
	l-5.7,0c-0.5,0-1.2,0.7-1.2,1.5c0,0.8,0.7,1.5,1.2,1.5l5.7,0l0,10.1l-5.7,0c-0.5,0-1.2,0.7-1.2,1.5c0,0.8,0.7,1.5,1.2,1.5l5.7,0
	l0,9.8l-5.7,0c-0.5,0-1.2,0.7-1.2,1.5c0,0.8,0.7,1.5,1.2,1.5l5.7,0l0,10.1l-5.7,0c-0.5,0-1.2,0.7-1.2,1.5c0,0.8,0.7,1.5,1.2,1.5
	l5.7,0l0,10.1h-5.7c-0.5,0-1.2,0.7-1.2,1.5c0,0.8,0.7,1.5,1.2,1.5l5.7,0l0,10.1h-5.7c-0.5,0-1.2,0.7-1.2,1.5c0,0.8,0.7,1.5,1.2,1.5
	l5.7,0l0,9.8h-5.7c-0.5,0-1.2,0.7-1.2,1.5c0,0.8,0.7,1.5,1.2,1.5l5.7,0l0,10.1h-5.7c-0.5,0-1.2,0.7-1.2,1.5c0,0.8,0.7,1.5,1.2,1.5
	l5.7,0l0,10.1h-5.7c-0.5,0-1.2,0.7-1.2,1.5c0,0.8,0.7,1.5,1.2,1.5l5.7,0l0,9.8h-5.7c-0.5,0-1.2,0.7-1.2,1.5c0,0.8,0.7,1.5,1.2,1.5
	l5.7,0l0,6.3l12.3,0V216l5.5-5.9l5.4,5.9v-11.8h-3.7l92.1,0v1.9h5.4v-1.9L236.2,204.1z M108.8,25.5h-2.5c0.6-1.3,1.8-2.2,3.3-2.2
	c2,0,3.7,1.6,3.7,3.7c0,2-1.6,3.7-3.7,3.7c-1.5,0-2.8-0.9-3.3-2.2l2.5,0c0.5,0,1.2-0.7,1.2-1.5C109.9,26.1,109.2,25.5,108.8,25.5z
	 M108.8,38.6h-2.6c0.6-1.3,1.9-2.3,3.4-2.3c2,0,3.7,1.6,3.7,3.7c0,2-1.6,3.7-3.7,3.7c-1.5,0-2.7-0.9-3.3-2.1l2.5,0
	c0.5,0,1.2-0.7,1.2-1.5C109.9,39.3,109.2,38.6,108.8,38.6z M108.8,51.7l-2.6,0c0.5-1.4,1.9-2.4,3.4-2.4c2,0,3.7,1.6,3.7,3.7
	c0,2-1.6,3.7-3.7,3.7c-1.4,0-2.6-0.8-3.2-2l2.4,0c0.5,0,1.2-0.7,1.2-1.5C109.9,52.4,109.2,51.7,108.8,51.7z M108.8,64.9l-2.6,0
	c0.5-1.4,1.8-2.5,3.4-2.5c2,0,3.7,1.6,3.7,3.7c0,2-1.6,3.7-3.7,3.7c-1.4,0-2.6-0.8-3.2-1.9l2.4,0c0.5,0,1.2-0.7,1.2-1.5
	C109.9,65.5,109.2,64.9,108.8,64.9z M108.8,77.7h-2.6c0.6-1.3,1.9-2.2,3.4-2.2c2,0,3.7,1.6,3.7,3.7c0,2-1.6,3.7-3.7,3.7
	c-1.5,0-2.7-0.9-3.3-2.1l2.5,0c0.5,0,1.2-0.7,1.2-1.5C109.9,78.3,109.2,77.7,108.8,77.7z M108.8,90.8h-2.6c0.5-1.4,1.9-2.3,3.4-2.3
	c2,0,3.7,1.6,3.7,3.7c0,2-1.6,3.7-3.7,3.7c-1.4,0-2.6-0.8-3.3-2l2.4,0c0.5,0,1.2-0.7,1.2-1.5C109.9,91.5,109.2,90.8,108.8,90.8z
	 M108.8,103.6h-2.5c0.6-1.3,1.8-2.1,3.3-2.1c2,0,3.7,1.6,3.7,3.7c0,2-1.6,3.7-3.7,3.7c-1.5,0-2.8-0.9-3.4-2.2l2.6,0
	c0.5,0,1.2-0.7,1.2-1.5C109.9,104.3,109.2,103.6,108.8,103.6z M108.8,116.8l-2.5,0c0.6-1.3,1.9-2.2,3.4-2.2c2,0,3.7,1.6,3.7,3.7
	c0,2-1.6,3.7-3.7,3.7c-1.5,0-2.7-0.9-3.3-2.1h2.5c0.5,0,1.2-0.7,1.2-1.5C109.9,117.4,109.2,116.8,108.8,116.8z M108.8,129.9h-2.6
	c0.5-1.4,1.9-2.3,3.4-2.3c2,0,3.7,1.6,3.7,3.7c0,2-1.6,3.7-3.7,3.7c-1.4,0-2.7-0.8-3.3-2l2.4,0c0.5,0,1.2-0.7,1.2-1.5
	C109.9,130.6,109.2,129.9,108.8,129.9z M108.8,143h-2.6c0.5-1.4,1.8-2.4,3.4-2.4c2,0,3.7,1.6,3.7,3.7c0,2-1.6,3.7-3.7,3.7
	c-1.4,0-2.6-0.8-3.2-1.9l2.4,0c0.5,0,1.2-0.7,1.2-1.5C109.9,143.7,109.2,143,108.8,143z M108.8,155.8h-2.5c0.6-1.3,1.9-2.2,3.4-2.2
	c2,0,3.7,1.6,3.7,3.7c0,2-1.6,3.7-3.7,3.7c-1.5,0-2.8-0.9-3.3-2.2l2.5,0c0.5,0,1.2-0.7,1.2-1.5C109.9,156.5,109.2,155.8,108.8,155.8
	z M108.8,169h-2.6c0.5-1.3,1.9-2.3,3.4-2.3c2,0,3.7,1.6,3.7,3.7c0,2-1.6,3.7-3.7,3.7c-1.4,0-2.7-0.8-3.3-2.1l2.4,0
	c0.5,0,1.2-0.7,1.2-1.5C109.9,169.6,109.2,169,108.8,169z M108.8,182.1h-2.6c0.5-1.4,1.9-2.4,3.4-2.4c2,0,3.7,1.6,3.7,3.7
	c0,2-1.6,3.7-3.7,3.7c-1.4,0-2.6-0.8-3.2-2l2.4,0c0.5,0,1.2-0.7,1.2-1.5C109.9,182.8,109.2,182.1,108.8,182.1z M109.6,200.1
	c-1.5,0-2.8-0.9-3.3-2.2l2.5,0c0.5,0,1.2-0.7,1.2-1.5c0-0.8-0.7-1.5-1.2-1.5h-2.5c0.6-1.3,1.8-2.2,3.3-2.2c2,0,3.7,1.6,3.7,3.7
	C113.3,198.4,111.6,200.1,109.6,200.1z"/>
<g id="notebook">
	<g>
		<g>
			<polygon class="st3" points="121.7,216 116.3,210.1 110.8,216 110.8,204.2 121.7,204.2 			"/>
			<path class="st5" d="M98.4,20l0,184.1l133.1,0l0-184.1L98.4,20z M104.9,200.1c-2,0-3.7-1.6-3.7-3.7c0-2,1.6-3.7,3.7-3.7
				c2,0,3.7,1.6,3.7,3.7C108.6,198.4,107,200.1,104.9,200.1z M104.9,187c-2,0-3.7-1.6-3.7-3.7c0-2,1.6-3.7,3.7-3.7s3.7,1.6,3.7,3.7
				C108.6,185.4,107,187,104.9,187z M104.9,174c-2,0-3.7-1.6-3.7-3.7c0-2,1.6-3.7,3.7-3.7c2,0,3.7,1.6,3.7,3.7
				C108.6,172.4,107,174,104.9,174z M104.9,161c-2,0-3.7-1.6-3.7-3.7c0-2,1.6-3.7,3.7-3.7c2,0,3.7,1.6,3.7,3.7
				C108.6,159.3,107,161,104.9,161z M104.9,147.9c-2,0-3.7-1.6-3.7-3.7c0-2,1.6-3.7,3.7-3.7c2,0,3.7,1.6,3.7,3.7
				C108.6,146.3,107,147.9,104.9,147.9z M104.9,134.9c-2,0-3.7-1.6-3.7-3.7c0-2,1.6-3.7,3.7-3.7c2,0,3.7,1.6,3.7,3.7
				C108.6,133.3,107,134.9,104.9,134.9z M104.9,121.9c-2,0-3.7-1.6-3.7-3.7c0-2,1.6-3.7,3.7-3.7c2,0,3.7,1.6,3.7,3.7
				C108.6,120.2,106.9,121.9,104.9,121.9z M104.9,108.8c-2,0-3.7-1.6-3.7-3.7c0-2,1.6-3.7,3.7-3.7c2,0,3.7,1.6,3.7,3.7
				C108.6,107.2,106.9,108.8,104.9,108.8z M104.9,95.8c-2,0-3.7-1.6-3.7-3.7c0-2,1.6-3.7,3.7-3.7c2,0,3.7,1.6,3.7,3.7
				C108.6,94.2,106.9,95.8,104.9,95.8z M104.9,82.8c-2,0-3.7-1.6-3.7-3.7c0-2,1.6-3.7,3.7-3.7c2,0,3.7,1.6,3.7,3.7
				C108.6,81.1,106.9,82.8,104.9,82.8z M104.9,69.7c-2,0-3.7-1.6-3.7-3.7c0-2,1.6-3.7,3.7-3.7c2,0,3.7,1.6,3.7,3.7
				C108.6,68.1,106.9,69.7,104.9,69.7z M104.9,56.7c-2,0-3.7-1.6-3.7-3.7c0-2,1.6-3.7,3.7-3.7c2,0,3.7,1.6,3.7,3.7
				C108.6,55.1,106.9,56.7,104.9,56.7z M104.9,43.7c-2,0-3.7-1.6-3.7-3.7c0-2,1.6-3.7,3.7-3.7c2,0,3.7,1.6,3.7,3.7
				C108.6,42,106.9,43.7,104.9,43.7z M104.9,30.6c-2,0-3.7-1.6-3.7-3.7c0-2,1.6-3.7,3.7-3.7c2,0,3.7,1.6,3.7,3.7
				C108.6,29,106.9,30.6,104.9,30.6z"/>
			<g>
				<g>
					<g>
						<path class="st4" d="M91.6,27c0,0.8,0.7,1.5,1.2,1.5l11.3,0c0.5,0,1.2-0.7,1.2-1.5l0,0c0-0.8-0.7-1.5-1.2-1.5l-11.3,0
							C92.3,25.5,91.6,26.1,91.6,27L91.6,27z"/>
					</g>
				</g>
				<g>
					<g>
						<path class="st4" d="M91.6,40.1c0,0.8,0.7,1.5,1.2,1.5l11.3,0c0.5,0,1.2-0.7,1.2-1.5l0,0c0-0.8-0.7-1.5-1.2-1.5l-11.3,0
							C92.3,38.6,91.6,39.3,91.6,40.1L91.6,40.1z"/>
					</g>
				</g>
				<g>
					<g>
						<path class="st4" d="M91.6,53.2c0,0.8,0.7,1.5,1.2,1.5l11.3,0c0.5,0,1.2-0.7,1.2-1.5l0,0c0-0.8-0.7-1.5-1.2-1.5l-11.3,0
							C92.3,51.7,91.6,52.4,91.6,53.2L91.6,53.2z"/>
					</g>
				</g>
				<g>
					<g>
						<path class="st4" d="M91.6,66.4c0,0.8,0.7,1.5,1.2,1.5l11.3,0c0.5,0,1.2-0.7,1.2-1.5l0,0c0-0.8-0.7-1.5-1.2-1.5l-11.3,0
							C92.3,64.9,91.6,65.5,91.6,66.4L91.6,66.4z"/>
					</g>
				</g>
				<g>
					<g>
						<path class="st4" d="M91.6,79.2c0,0.8,0.7,1.5,1.2,1.5l11.3,0c0.5,0,1.2-0.7,1.2-1.5l0,0c0-0.8-0.7-1.5-1.2-1.5l-11.3,0
							C92.3,77.7,91.6,78.4,91.6,79.2L91.6,79.2z"/>
					</g>
				</g>
				<g>
					<g>
						<path class="st4" d="M91.6,92.3c0,0.8,0.7,1.5,1.2,1.5l11.3,0c0.5,0,1.2-0.7,1.2-1.5l0,0c0-0.8-0.7-1.5-1.2-1.5l-11.3,0
							C92.3,90.8,91.6,91.5,91.6,92.3L91.6,92.3z"/>
					</g>
				</g>
				<g>
					<g>
						<path class="st4" d="M91.6,105.1c0,0.8,0.7,1.5,1.2,1.5l11.3,0c0.5,0,1.2-0.7,1.2-1.5l0,0c0-0.8-0.7-1.5-1.2-1.5l-11.3,0
							C92.3,103.6,91.6,104.3,91.6,105.1L91.6,105.1z"/>
					</g>
				</g>
				<g>
					<g>
						<path class="st4" d="M91.6,118.3c0,0.8,0.7,1.5,1.2,1.5l11.3,0c0.5,0,1.2-0.7,1.2-1.5l0,0c0-0.8-0.7-1.5-1.2-1.5l-11.3,0
							C92.3,116.8,91.6,117.4,91.6,118.3L91.6,118.3z"/>
					</g>
				</g>
				<g>
					<g>
						<path class="st4" d="M91.6,131.4c0,0.8,0.7,1.5,1.2,1.5l11.3,0c0.5,0,1.2-0.7,1.2-1.5l0,0c0-0.8-0.7-1.5-1.2-1.5H92.8
							C92.3,129.9,91.6,130.6,91.6,131.4L91.6,131.4z"/>
					</g>
				</g>
				<g>
					<g>
						<path class="st4" d="M91.6,144.5c0,0.8,0.7,1.5,1.2,1.5l11.3,0c0.5,0,1.2-0.7,1.2-1.5l0,0c0-0.8-0.7-1.5-1.2-1.5H92.8
							C92.3,143,91.6,143.7,91.6,144.5L91.6,144.5z"/>
					</g>
				</g>
				<g>
					<g>
						<path class="st4" d="M91.6,157.3c0,0.8,0.7,1.5,1.2,1.5l11.3,0c0.5,0,1.2-0.7,1.2-1.5l0,0c0-0.8-0.7-1.5-1.2-1.5H92.8
							C92.3,155.8,91.6,156.5,91.6,157.3L91.6,157.3z"/>
					</g>
				</g>
				<g>
					<g>
						<path class="st4" d="M91.6,170.5c0,0.8,0.7,1.5,1.2,1.5l11.3,0c0.5,0,1.2-0.7,1.2-1.5l0,0c0-0.8-0.7-1.5-1.2-1.5H92.8
							C92.3,169,91.6,169.6,91.6,170.5L91.6,170.5z"/>
					</g>
				</g>
				<g>
					<g>
						<path class="st4" d="M91.6,183.6c0,0.8,0.7,1.5,1.2,1.5l11.3,0c0.5,0,1.2-0.7,1.2-1.5l0,0c0-0.8-0.7-1.5-1.2-1.5H92.8
							C92.3,182.1,91.6,182.8,91.6,183.6L91.6,183.6z"/>
					</g>
				</g>
				<g>
					<g>
						<path class="st4" d="M91.6,196.4c0,0.8,0.7,1.5,1.2,1.5l11.3,0c0.5,0,1.2-0.7,1.2-1.5l0,0c0-0.8-0.7-1.5-1.2-1.5H92.8
							C92.3,194.9,91.6,195.6,91.6,196.4L91.6,196.4z"/>
					</g>
				</g>
			</g>
		</g>
		<rect x="121.7" y="53.2" class="st6" width="93.9" height="43.8"/>
	</g>
	<rect x="210.1" y="17.7" class="st3" width="5.4" height="188.3"/>
</g>
<g id="tea">
	<path class="st8" d="M315.3,177.9c0,21-17,38-38,38c-21,0-38-17-38-38s17-38,38-38C298.2,139.9,315.3,156.9,315.3,177.9
		L315.3,177.9z"/>
	<path class="st4" d="M277.2,137.2c-22.5,0-40.7,18.2-40.7,40.7c0,22.5,18.2,40.7,40.7,40.7c22.5,0,40.8-18.2,40.8-40.7
		C318,155.4,299.7,137.2,277.2,137.2L277.2,137.2z M277.2,216c-21,0-38-17-38-38s17-38,38-38c21,0,38,17,38,38S298.2,216,277.2,216
		L277.2,216z"/>
	<path class="st0" d="M300.6,177.9c0,0,0-0.1,0-0.2c-0.1-12.9-10.5-23.2-23.4-23.2c-12.9,0-23.3,10.4-23.4,23.2c0,0.1,0,0.1,0,0.2
		c0,12.9,10.5,23.4,23.4,23.4C290.2,201.3,300.6,190.8,300.6,177.9L300.6,177.9z M254.6,177.9c0,0,0-0.1,0-0.2
		c0.1-11,9-19.9,20-19.9c11,0,20,8.9,20,19.9c0,0.1,0,0.1,0,0.2c0,11.1-9,20.1-20.1,20.1C263.6,198,254.6,189,254.6,177.9
		L254.6,177.9z"/>
	<path class="st7" d="M274.7,157.9c-0.1,0-0.1,0-0.2,0c-11,0.1-19.9,9-19.9,20c0,11,8.9,20,19.9,20v0c0.1,0,0.1,0,0.2,0
		c11.1,0,20.1-9,20.1-20.1C294.7,166.8,285.7,157.9,274.7,157.9z"/>
	<path class="st5" d="M316.1,172.7h-11.7c0,0,0,0,0,0c-2.4-12.8-13.7-22.5-27.2-22.5c-15.3,0-27.7,12.4-27.7,27.7
		c0,15.3,12.4,27.7,27.7,27.7c13.9,0,25.4-10.3,27.4-23.6c0,0.1,0,0.1,0,0.2h11.5c2.1,0,3.8-1.7,3.8-3.8v-0.9v-0.9
		C319.9,174.4,318.2,172.7,316.1,172.7z M277.2,201.3c-12.9,0-23.4-10.5-23.4-23.4c0-12.9,10.5-23.4,23.4-23.4
		c12.9,0,23.4,10.5,23.4,23.4C300.6,190.8,290.2,201.3,277.2,201.3z"/>
</g>
<g id="shadow_1_" class="st9">
	<polygon class="st10" points="190.5,148 194,155.4 194,155.4 195,157.6 196.1,155.4 196.1,155.4 199.6,148 199.6,40.4 190.5,40.4 	
		"/>
	<path class="st10" d="M197.1,26.5h-4.2c-1.4,0-2.5,1.1-2.5,2.5v11h9.1V29C199.6,27.6,198.5,26.5,197.1,26.5z"/>
</g>
<g id="pencil_1_">
	<g>
		<rect x="187" y="40.4" class="st4" width="9.1" height="107.6"/>
		<polygon class="st11" points="187,148 191.5,157.6 196.1,148 		"/>
		<path class="st5" d="M191.5,155.3c-0.4,0-0.7,0.1-1.1,0.1l1.1,2.2l1.1-2.2C192.3,155.3,191.9,155.3,191.5,155.3z"/>
	</g>
	<path class="st3" d="M193.6,26.5h-4.2c-1.4,0-2.5,1.1-2.5,2.5v11h9.1V29C196.1,27.6,195,26.5,193.6,26.5z"/>
</g>
<g id="shadow" class="st9">
	<polygon class="st10" points="63.2,204.2 67.2,212.7 67.2,212.7 68.5,215.3 69.7,212.7 69.7,212.7 73.7,204.2 73.7,79.9 63.2,79.9 
			"/>
	<path class="st10" d="M70.9,63.9H66c-1.6,0-2.8,1.3-2.8,2.8v12.7h10.5V66.8C73.7,65.2,72.5,63.9,70.9,63.9z"/>
</g>
<g id="pencil">
	<g>
		<rect x="59.7" y="79.9" class="st5" width="10.5" height="124.3"/>
		<polygon class="st11" points="59.7,204.2 65,215.3 70.2,204.2 		"/>
		<path class="st5" d="M65,212.6c-0.4,0-0.8,0.1-1.2,0.2l1.2,2.5l1.2-2.5C65.8,212.6,65.4,212.6,65,212.6z"/>
	</g>
	<path class="st3" d="M67.4,63.9h-4.9c-1.6,0-2.8,1.3-2.8,2.8v12.7h10.5V66.8C70.2,65.2,69,63.9,67.4,63.9z"/>
</g>
<g id="clip">
	<path class="st2" d="M287.4,127v-0.6c-6.1-1.4-31.7-7.2-34.2-7.2c-1.8,0-2.9,1.5-3.8,2.6c-0.7,0.8-1.2,1.6-1.8,1.6
		c-1.5,0-2.9-2.1-2.9-6.1v-0.7c0-4,1.5-6.1,2.9-6.1c0.6,0,1.2,0.7,1.8,1.6c0.9,1.2,2,2.6,3.8,2.6c2.4,0,28.8-5.8,33.7-7
		c0.2,0,0.3-0.1,0.5-0.2v-2l-0.3,0.1c-7.8,1.9-31.8,6.9-33.9,6.9c-1.1,0-1.9-1-2.7-2c-0.8-1.1-1.7-2.2-2.9-2.2
		c-2.3,0-4.5,2.8-4.5,8.2v0.7c0,5.4,2.3,8.2,4.5,8.2c1.3,0,2.1-1.1,2.9-2.2c0.8-1,1.6-2,2.7-2c2,0,32.1,6.7,34.2,7.2V127z"/>
	<path class="st5" d="M307.1,98.8l-19.7,0v9.6v4.8v12.6v9l20,0c1.9,0,3.1-1.5,3.1-3.4v-29.6C310.4,100,308.9,98.8,307.1,98.8z"/>
	<polygon class="st6" points="287.1,98.8 287.1,113.2 287.1,121 287.1,125.8 287.1,131.6 287.1,134.9 291.9,134.9 291.9,129.2 
		291.9,128.2 291.9,118.8 291.9,115.4 291.9,98.8 	"/>
</g>
<path id="shadow_7_" class="st1" d="M253.7,19.2v22.2c0,2.3,1.9,4.2,4.2,4.2l1,0c2.3,0,4.2-1.9,4.2-4.2V20.1c0-0.3-0.2-0.5-0.5-0.5
	c-0.3,0-0.5,0.2-0.5,0.5v21.3c0,1.7-1.4,3.1-3.1,3.1h-1c-1.7,0-3.1-1.4-3.1-3.1V19.2c0-1.1,0.3-2,0.8-2.5c0.7-0.6,1.5-0.6,1.6-0.6
	c2.6,0,2.8,1.2,2.8,3.1v21l0,0.5c0,0.9-0.7,1.6-1.6,1.6c-0.9,0-1.6-0.7-1.6-1.6V20c0-0.3-0.2-0.5-0.5-0.5c-0.3,0-0.5,0.2-0.5,0.5
	v20.7c0,1.4,1.2,2.6,2.6,2.6c1.4,0,2.6-1.2,2.6-2.6l0,0l0-0.5V19.2c0-2.1-0.3-4.2-3.8-4.2c-0.1,0-1.3-0.1-2.3,0.9
	C254.1,16.7,253.7,17.8,253.7,19.2z"/>
<path class="st3" d="M251.1,19.2v22.2c0,2.3,1.9,4.2,4.2,4.2l1,0c2.3,0,4.2-1.9,4.2-4.2V20.1c0-0.3-0.2-0.5-0.5-0.5
	c-0.3,0-0.5,0.2-0.5,0.5v21.3c0,1.7-1.4,3.1-3.1,3.1h-1c-1.7,0-3.1-1.4-3.1-3.1V19.2c0-1.1,0.3-2,0.8-2.5c0.7-0.6,1.5-0.6,1.6-0.6
	c2.6,0,2.8,1.2,2.8,3.1v21l0,0.5c0,0.9-0.7,1.6-1.6,1.6c-0.9,0-1.6-0.7-1.6-1.6V20c0-0.3-0.2-0.5-0.5-0.5c-0.3,0-0.5,0.2-0.5,0.5
	v20.7c0,1.4,1.2,2.6,2.6,2.6c1.4,0,2.6-1.2,2.6-2.6l0,0l0-0.5V19.2c0-2.1-0.3-4.2-3.8-4.2c-0.1,0-1.3-0.1-2.3,0.9
	C251.5,16.7,251.1,17.8,251.1,19.2z"/>
</svg>
